%YAML 1.1
%TAG !u! tag:unity3d.com,2011:
--- !u!78 &1
TagManager:
  serializedVersion: 2
  tags:
  - Floor
  - Fire
  - "Main\xE7"
  - FireBall
  - EOrb
  - HPOrb
  - Gem
  - Enemy
  - p
  - Wall
  - EnemyFireBall
  - PlayerMove
  - Shield
  - BossDMG
  - BossHud
  - tp
  - Projectile
  - water
  - PowerUp
  layers:
  - Default
  - TransparentFX
  - Ignore Raycast
  - 
  - Water
  - UI
  - 
  - 
  - PostProcessing
  - world
  - 
  - 
  - 
  - 
  - 
  - 
  - 
  - 
  - 
  - 
  - 
  - 
  - 
  - 
  - 
  - 
  - 
  - 
  - 
  - 
  - 
  - 
  m_SortingLayers:
  - name: Default
    uniqueID: 0
    locked: 0
